{
    "strict": true,
    "debug": true,

    "sp": {
        "entityId": "https://develop.svia.nl/saml/metadata/",
        "assertionConsumerService": {
            "url": "https://develop.svia.nl/saml/acs/",
            "binding": "urn:oasis:names:tc:SAML:2.0:bindings:HTTP-POST"
        },
        "attributeConsumingService": {
            "serviceName": "Study association via",
            "serviceDescription": "Website for study association via",
            "requestedAttributes": [
                {
                    "name": "urn:mace:dir:attribute-def:sn",
                    "nameFormat": "urn:oasis:names:tc:SAML:2.0:attrname-format:uri",
                    "isRequired": true,
                    "friendlyName": "Surname"
                },
                {
                    "name": "urn:mace:dir:attribute-def:givenName",
                    "nameFormat": "urn:oasis:names:tc:SAML:2.0:attrname-format:uri",
                    "isRequired": true,
                    "friendlyName": "Given name"
                },
                {
                    "name": "urn:mace:dir:attribute-def:uid",
                    "nameFormat": "urn:oasis:names:tc:SAML:2.0:attrname-format:uri",
                    "isRequired": true,
                    "friendlyName": "uid"
                },
                {
                    "name": "urn:mace:dir:attribute-def:mail",
                    "nameFormat": "urn:oasis:names:tc:SAML:2.0:attrname-format:uri",
                    "isRequired": true,
                    "friendlyName": "Email address"
                },
                {
                    "name": "urn:mace:dir:attribute-def:eduPersonAffiliation",
                    "nameFormat": "urn:oasis:names:tc:SAML:2.0:attrname-format:uri",
                    "isRequired": true,
                    "friendlyName": "Affiliation"
                },
                {
                    "name": "urn:mace:dir:attribute-def:preferredLanguage",
                    "nameFormat": "urn:oasis:names:tc:SAML:2.0:attrname-format:uri",
                    "isRequired": false,
                    "friendlyName": "Preferred language"
                }
            ]
        },
        "NameIDFormat": "urn:oasis:names:tc:SAML:2.0:nameid-format:persistent"
    },

    "idp": {
        "metadataUrl": "https://metadata.test.surfconext.nl/idp-metadata.xml"
    }
}
