{
    "en": {
        "title": "Report a bug",
        "breadcrumb.home": "Homepage",
        "breadcrumb.bug": "Report a bug",
        "alert.message": "Issue \"{title}\" has been created, you can see it's progress on {gitlab}",
        "alert.description": "Have you ever contributed to an fun open-source project? The ICT-committee is always welcoming new contributors! They will help you get started and perhaps you can even solve {issue} yourself?",
        "alert.description.issue": "your submitted issue"
    },
    "nl": {
        "title": "Reporteer een bug",
        "breadcrumb.home": "Homepage",
        "breadcrumb.bug": "Reporteer een bug",
        "alert.message": "Issue \"{title}\" is aangemaakt, je kan de issue op {gitlab} volgen.",
        "alert.description": "Heb je ooit bijgedragen aan een leuk open-source project? De ICT-commissie is altijd op zoek naar nieuwe contributors! De commissie ondersteund nieuwe leden en misschien los jij {issue} zelf wel op?",
        "alert.description.issue": "je net aangemaakte issue"
    }
}
