{
    "en": {
        "Answers": "Answers",
        "Comment": "Comment",
        "Course": "Course",
        "Create examination": "Create examination",
        "Date": "Date",
        "Edit examination": "Edit examination",
        "End-term": "End-term",
        "Exam": "Exam",
        "Examination is required": "Examination is required",
        "Examination successfully saved.": "Examination successfully saved.",
        "Examination type": "Examination type",
        "Mid-term": "Mid-term",
        "Please enter the comment": "Please enter the comment",
        "Please enter the date": "Please enter the date",
        "Please select examination type": "Please select examination type",
        "Please select the course": "Please select the course",
        "Retake": "Retake",
        "Select answers file": "Select answers file",
        "Select exam file": "Select exam file",
        "View current exam": "View current exam",
        "View current answers": "View current answers",
        "Unknown": "Unknown"
    },
    "nl": {
        "Answers": "Antwoorden",
        "Comment": "Comment",
        "Course": "Vak",
        "Create examination": "Tentamen aanmaken",
        "Date": "Datum",
        "Edit examination": "Tentamen aanpassen",
        "End-term": "Eindtentamen",
        "Exam": "Tentamen",
        "Examination is required": "Tentamen is vereist is required",
        "Examination successfully saved.": "Tentamen succesvol opgeslagen.",
        "Examination type": "Tentamen soort",
        "Mid-term": "Deeltentamen",
        "Please enter the comment": "Vul een comment in",
        "Please enter the date": "Vul een datum in",
        "Please select examination type": "Selecteer een soort tentamen",
        "Please select the course": "Selecteer een vak",
        "Retake": "Hertentamen",
        "Select answers file": "Selecteer antwoorden bestand",
        "Select exam file": "Selecteer tentamen bestand",
        "View current exam": "Bekijk huidig tentamen",
        "View current answers": "Bekijk huidige antwoorden",
        "Unknown": "Onbekend"
    }
}
