{
    "en": {
        "contests": "Contests",
        "contest.edit": "Edit contest",
        "banner": "Banner",
        "banner.extra": "Banner shown at the top of the scoreboard. Use an image with an aspect ratio of about 13/2.",
        "banner.url": "Banner link (URL)",
        "banner.url.error.format": "Please enter a valid URL.",
        "banner.url.error.length": "Banner link cannot be longer than 512 characters.",
        "back": "Back",
        "save": "Save",
        "save.success.title": "Success",
        "save.success": "Settings successfully saved.",
        "save.error.title": "Failed",
        "save.error": "An error occurred while saving."
    },
    "nl": {
        "contests": "Wedstrijden",
        "contest.edit": "Wedstrijd bewerken",
        "banner": "Banner",
        "banner.extra": "Banner voor bovenaan het scorebord. Gebruik een afbeelding met een aspectratio van ongeveer 13/2.",
        "banner.url": "Link voor banner (URL)",
        "banner.url.error.format": "Geef een geldige URL op.",
        "banner.url.error.length": "Link voor banner kan niet langer zijn dan 512 karakters.",
        "back": "Terug",
        "save": "Opslaan",
        "save.success.title": "Succes",
        "save.success": "Instellingen succesvol opgeslagen.",
        "save.error.title": "Mislukt",
        "save.error": "Er is een fout opgetreden bij het opslaan."
    }
}
